…
# check it
cropMeans8
```

```
## # A tibble: 21 x 6
##    cdlClassName     meanArea_km2 totalArea proportion cumArea cumproportion
##    <chr>                   <dbl>     <dbl>      <dbl>   <dbl>         <dbl>
##  1 Corn                  118.         257.    0.460      118.         0.460
##  2 Grass/Pasture          37.8        257.    0.147      156.         0.607
##  3 Winter Wheat           34.2        257.    0.133      190.         0.740
##  4 Fallow/Idle Cro…       23.0        257.    0.0892     213.         0.829
##  5 Sorghum                15.5        257.    0.0601     229.         0.889
##  6 Soybeans               13.9        257.    0.0539     243.         0.943
##  7 Developed/Open …        9.84       257.    0.0382     253.         0.981
##  8 Alfalfa                 1.42       257.    0.00551    254.         0.987
##  9 Sunflower               0.921      257.    0.00358    255.         0.990
## 10 Triticale               0.556      257.    0.00216    255.         0.992
## # … with 11 more rows
```
…
