…
```r
yieldPrices
```

```
## # A tibble: 40 x 6
##    runID  year crop  totalYield_kg price_2017_kg cropProfit
##    <chr> <int> <chr>         <dbl>         <dbl>      <dbl>
##  1 BAU    2013 CORN      71593102.         0.252  18069984.
##  2 BAU    2014 CORN      78012502.         0.166  12950106.
##  3 BAU    2015 CORN      84183907.         0.150  12599270.
##  4 BAU    2016 CORN      94715559.         0.139  13129716.
##  5 BAU    2017 CORN     101037549.         0.131  13239960.
##  6 BAU    2013 WHEAT      1142477.         0.283    322977.
##  7 BAU    2014 WHEAT      2404140.         0.241    578405.
##  8 BAU    2015 WHEAT      1774861.         0.200    355748.
##  9 BAU    2016 WHEAT      3833819.         0.154    590649.
## 10 BAU    2017 WHEAT      1524134.         0.163    248355.
## # … with 30 more rows
```
…
