…
```r
preLemaData <- master %>% filter(year > 2007 & year < 2013)
LemaData <- master %>% filter(year > 2012)

preLemaAgreement <- preLemaData %>%
  group_by(runID) %>%
  do(as.data.frame(calcStats(.$salusVol_90adj,.$wimasVolume_km3))) %>%
  arrange(mae)
preLemaAgreement
```

```
## # A tibble: 33 x 11
## # Groups:   runID [33]
##    runID    r2    rmse   vecv     mae    mdae       me     r     m     int
##    <chr> <dbl>   <dbl>  <dbl>   <dbl>   <dbl>    <dbl> <dbl> <dbl>   <dbl>
##  1 0054  0.667 0.00321   51.7 0.00262 0.00144  1.51e-3 0.817 0.797 0.00568
##  2 0052  0.679 0.00286   61.8 0.00264 0.00249 -8.14e-4 0.824 0.825 0.00660
##  3 0051  0.648 0.00507  -20.2 0.00414 0.00448 -4.12e-3 0.805 0.771 0.0109 
##  4 0065  0.655 0.00542  -37.1 0.00468 0.00605 -4.68e-3 0.809 0.933 0.00664
##  5 0053  0.589 0.00642  -93.0 0.00527 0.00470 -5.27e-3 0.767 0.620 0.0161 
##  6 0055  0.715 0.00766 -175.  0.00707 0.00822  7.07e-3 0.846 0.705 0.00500
##  7 0050  0.592 0.00969 -339.  0.00910 0.0101  -9.10e-3 0.769 0.699 0.0165 
##  8 0049  0.642 0.0114  -508.  0.0109  0.0103  -1.09e-2 0.801 0.671 0.0185 
##  9 0018  0.518 0.0133  -730.  0.0128  0.0143  -1.28e-2 0.719 0.694 0.0193 
## 10 0063  0.567 0.0134  -739.  0.0130  0.0140  -1.30e-2 0.753 0.730 0.0186 
## # … with 23 more rows, and 1 more variable: rmspe <dbl>
```
…
```r
## lema period
LemaAgreement <- LemaData %>%
  group_by(runID) %>%
  filter(year < 2017) %>% # 2017 wasn't available during time of model selection
  do(as.data.frame(calcStats(.$salusVol_90adj, .$wimasVolume_km3))) %>%
  arrange(mae)
LemaAgreement
```

```
## # A tibble: 33 x 11
## # Groups:   runID [33]
##    runID      r2    rmse   vecv     mae    mdae       me       r       m
##    <chr>   <dbl>   <dbl>  <dbl>   <dbl>   <dbl>    <dbl>   <dbl>   <dbl>
##  1 0050  3.83e-2 0.00233  -92.7 0.00213 0.00263  5.14e-4 -0.196  -0.265 
##  2 0018  4.04e-2 0.00302 -223.  0.00244 0.00234 -2.36e-3 -0.201  -0.572 
##  3 0049  9.19e-1 0.00278 -173.  0.00244 0.00278 -8.48e-4 -0.959  -1.63  
##  4 0063  3.00e-4 0.00340 -308.  0.00266 0.00197 -2.66e-3 -0.0173 -0.0231
##  5 0065  2.56e-1 0.00436 -572.  0.00359 0.00386  3.55e-3 -0.506  -0.694 
##  6 0051  2.07e-3 0.00445 -601.  0.00382 0.00411  3.82e-3  0.0455  0.0471
##  7 0048  9.18e-2 0.00418 -519.  0.00386 0.00456 -3.86e-3  0.303   0.800 
##  8 0039  4.60e-1 0.00492 -757.  0.00427 0.00435 -4.27e-3 -0.678  -1.17  
##  9 0053  4.97e-3 0.00508 -812.  0.00455 0.00509  4.55e-3  0.0705  0.0731
## 10 0062  1.04e-1 0.00517 -844.  0.00469 0.00443 -4.69e-3 -0.323  -0.581 
## # … with 23 more rows, and 2 more variables: int <dbl>, rmspe <dbl>
```
…
